[
  {
    "id": "hello-world",
    "title": "Hello World",
    "description": "Stores a string to a storage.",
    "sourceUrl": "https://gitlab.com/tezosisrael/smart-contracts-examples/-/tree/master/examples/hello-example",
    "contracts": [
      {
        "address": "KT1TPaPD5iDrCTkv7gpCCsqCS7bhDHrsGr5v",
        "lang": "Camel"
      },
      {
        "address": "KT1LuEn6D9g6GDzb2ife2FBbXRZj4h8G55RH",
        "lang": "Pascal"
      },
      {
        "address": "KT19rHjy8WX5hAAiMza4nTQdQCVigxmDbjR8",
        "lang": "Reason"
      }
    ]
  },
  {
    "id": "grocery-list",
    "title": "Grocery List",
    "description": "The grocery list contract lets you create a list of groceries, on-chain. You can add an item and a quantity, edit and remove it. ",
    "sourceUrl": "https://gitlab.com/tezosisrael/smart-contracts-examples/-/tree/master/examples/grocery-list",
    "contracts": [
      {
        "address": "KT1MewfbLcRLsXoWyAtsuj14deifnGxxKrqm",
        "lang": "Camel"
      },
      {
        "address": "KT19LYERyx6vT3vPHLos6J239mXWkq9L29FR",
        "lang": "Pascal"
      },
      {
        "address": "KT1GaEsnZZCvnLRCVrQ7x8T4HmbyXDHmH6x4",
        "lang": "Reason"
      }
    ]
  },
  {
    "id": "calculator",
    "title": "Calculator",
    "description": "The calculator contract takes in two variables and an action (add/subtract/multiply/divide) and stores the answer in the contract storage. ",
    "sourceUrl": "https://gitlab.com/tezosisrael/smart-contracts-examples/-/tree/master/examples/calculator",
    "contracts": [
      {
        "address": "KT1Tx6sdS4UicFU6eKUfhvGBWo2mNoxCG1Wg",
        "lang": "Camel"
      },
      {
        "address": "KT1CXCszEqHEBipeHjRfC3r2HTh6qHZ2kdUj",
        "lang": "Pascal"
      },
      {
        "address": "KT1RN8gAgqm5MtcLkLGpHz5cFeptFsuqLp6M",
        "lang": "Reason"
      }
    ]
  },
  {
    "id": "record",
    "title": "Record",
    "description": "The record contract stores the Name and Age of the user. It has three functions to add a name, add an age, and add both.",
    "sourceUrl": "https://gitlab.com/tezosisrael/smart-contracts-examples/-/tree/master/examples/record",
    "contracts": [
      {
        "address": "KT1C7RUVaa6H6iUt6WYZE5fiywEEt1ZPj8pk",
        "lang": "Caml"
      },
      {
        "address": "KT1VTPpRKyC5erME5UU3a17tajmUDTf5giAo",
        "lang": "Pascal"
      },
      {
        "address": "KT1HU6cWSUzqFFczZPHJcCTAL4KoSWiiaA5h",
        "lang": "Reason"
      }
    ]
  }
]
